{
    "id": 3066,
    "siteNetwork": "cpgdemo",
    "feedUserId": "admin",
    "postUserId": "cpgadmin",
    "postDate": "%@",
    "activitySummary": "{\"lastName\":\"Admin\",\"title\":\"Special Announcements\",\"page\":\"wiki-page?title=Special_Announcements\",\"firstName\":\"CPG Demo\"}",
    "activityType": "org.alfresco.wiki.page-edited",
    "activitySummaryFormat": "json"
}